<?xml version="1.0" encoding="utf-8"?>
<!-- Generator: Adobe Illustrator 22.0.1, SVG Export Plug-In . SVG Version: 6.00 Build 0)  -->
<svg version="1.1" id="Autoconocimiento" xmlns="http://www.w3.org/2000/svg" xmlns:xlink="http://www.w3.org/1999/xlink" x="0px"
	 y="0px" viewBox="0 0 80 80" style="enable-background:new 0 0 80 80;" xml:space="preserve">
<style type="text/css">
	.st0{fill:none;stroke:#FFFFFF;stroke-width:1.8405;stroke-linejoin:round;stroke-miterlimit:10;}
</style>
<g>
	<g>
		<path class="st0" d="M4.7,46.6l14.7-4.9v-4.6c0,0-2.6-1.3-2.6-6.3c-1.6,0-2.3-4.6,0-4.6c0-0.7-3.7-6.8,1.2-5.8
			c1.2-4.6,12.8-4.6,13.9,0c0.7,2.8-1.1,5.3-1.1,5.8c2.2,0,1.5,4.6-0.1,4.6c0,5-2.2,6.3-2.2,6.3v4.6L41.5,46"/>
		<polyline class="st0" points="41.5,53.6 4.7,53.6 4.7,7.6 41.5,7.6 41.5,20.7 		"/>
	</g>
	<g>
		<path class="st0" d="M47.9,72h26.7c0,0,0-4.8-2.3-9.4c-1.7-3.5-8.6-5.5-17.9-9v-7c0,0,2.8-2.6,2.8-7.3c1.2,0,2.3-4.6,0-5.8
			c0-0.7,3.1-6.5,2.3-10.4C58.4,17.3,42.1,17.3,41,22c-7,0-2.3,10.7-2.3,11.6c-2.3,1.2-1.2,5.8,0,5.8c0,4.6,2.8,6.9,2.8,6.9v7.4
			c-9.3,3.5-16.2,5.5-17.9,9c-2.3,4.6-2.3,9.4-2.3,9.4H47.9z"/>
	</g>
</g>
</svg>
