<?xml version="1.0" encoding="utf-8"?>
<!-- Generator: Adobe Illustrator 22.0.1, SVG Export Plug-In . SVG Version: 6.00 Build 0)  -->
<svg version="1.1" id="Sesiones" xmlns="http://www.w3.org/2000/svg" xmlns:xlink="http://www.w3.org/1999/xlink" x="0px" y="0px"
	 viewBox="0 0 80 80" style="enable-background:new 0 0 80 80;" xml:space="preserve">
<style type="text/css">
	.st0{fill:none;stroke:#FFFFFF;stroke-width:2;stroke-linecap:round;stroke-linejoin:round;stroke-miterlimit:10;}
	.st1{fill:none;stroke:#FFFFFF;stroke-width:2;stroke-linecap:square;stroke-linejoin:round;stroke-miterlimit:10;}
</style>
<g>
	<polyline class="st0" points="45.4,16.2 55.4,16.2 55.4,52.5 24.6,52.5 24.6,16.2 34.6,16.2 	"/>
	<rect x="34.6" y="14.4" class="st0" width="10.9" height="3.6"/>
	<path class="st0" d="M58.1,52.5H21.9c-1.3,0-1.8,0.6-1.8,1.8c0,1.3,0.6,1.8,1.8,1.8h36.3c1.3,0,1.8-0.6,1.8-1.8
		C60,53,59.4,52.5,58.1,52.5z"/>
	<line class="st1" x1="40" y1="56.5" x2="40" y2="71"/>
	<line class="st1" x1="20.8" y1="71" x2="28.2" y2="56.5"/>
	<line class="st1" x1="57.4" y1="71" x2="50" y2="56.5"/>
	<line class="st1" x1="40" y1="9" x2="40" y2="14.4"/>
</g>
</svg>
