<?xml version="1.0" encoding="utf-8"?>
<!-- Generator: Adobe Illustrator 22.0.1, SVG Export Plug-In . SVG Version: 6.00 Build 0)  -->
<svg version="1.1" id="Conocerte" xmlns="http://www.w3.org/2000/svg" xmlns:xlink="http://www.w3.org/1999/xlink" x="0px" y="0px"
	 viewBox="0 0 80 80" style="enable-background:new 0 0 80 80;" xml:space="preserve">
<style type="text/css">
	.st0{fill:none;stroke:#FFFFFF;stroke-width:1.9008;stroke-miterlimit:10;}
	.st1{fill:none;stroke:#FFFFFF;stroke-width:2;stroke-miterlimit:10;}
</style>
<g>
	<g>
		<path class="st0" d="M40,69.7c0,0,34.4-21,34.4-40.9c0-19.9-30.5-26.2-34.4-6.3C36.1,2.6,5.6,8.9,5.6,30.3S40,69.7,40,69.7z"/>
	</g>
	<g>
		<path class="st1" d="M35.2,44.4v4.3L27,51.6c-1.9,0.7-3.2,2.3-3.2,4.4v2.6l1.3,1.2h28.1l1.3-1.2V56c0-2-1.4-3.7-3.3-4.4l-8-2.9V44
			"/>
		<path class="st1" d="M47,35.8c0,5.3-3.6,9.7-8.1,9.7c-4.5,0-8.1-4.3-8.1-9.7c0-5.3,3.6-9.7,8.1-9.7C43.4,26.2,47,30.5,47,35.8z"/>
		<path class="st1" d="M47,35c-0.3,0-0.5,0-0.8,0c-2.7,0.5-4.5-0.5-6-3.1c-0.9,1.7-3.7,3.1-6.1,3.1c-1.1,0-2.2-0.2-3.1-0.7"/>
	</g>
</g>
</svg>
